{
  "0": "0",
  "20": "20",
  "25": "25",
  "28": "25",
  "35": "35",
  "40": "35",
  "45": "45",
  "50": "45",
  "55": "50",
  "60": "55",
  "65": "60",
  "70": "65",
  "75": "70",
  "80": "75",
  "85": "80",
  "100": "95",
  "115": "110",
  "120": "115",
  "140": "130",
  "150": "140",
  "175": "165",
  "180": "170",
  "190": "180",
  "200": "190",
  "225": "210",
  "250": "235",
  "275": "255",
  "300": "280",
  "360": "340",
  "420": "400"
}
